…
    `summarise()` has grouped output by 'Station.MAC'. You can override using the
    `.groups` argument.

``` r
cluster_data
```

    # A tibble: 1,477 × 5
    # Groups:   Station.MAC [1,477]
       Station.MAC       Probed.ESSIDs first_time          last_time           Power
       <chr>             <chr>         <dttm>              <dttm>              <dbl>
     1 5C:3A:45:9E:1A:7B C322U21 0566  2023-07-28 09:13:03 2023-07-28 11:51:54   -39
     2 96:35:2D:3D:85:E6 IT2 Wireless  2023-07-28 09:13:03 2023-07-28 09:13:03   -65
     3 C0:E4:34:D8:E7:E5 C322U13 3965  2023-07-28 09:13:03 2023-07-28 11:53:16   -61
     4 CA:66:3B:8F:56:DD C322U13 3965  2023-07-28 09:13:03 2023-07-28 10:59:44   -33
     5 68:54:5A:40:35:9E C322U06 5179  2023-07-28 09:13:06 2023-07-28 11:50:50   -31
     6 CA:54:C4:8B:B5:3A GIVC          2023-07-28 09:13:06 2023-07-28 11:55:04   -65
     7 4A:C9:28:46:EE:3F KOTIKI_XXX    2023-07-28 09:13:08 2023-07-28 11:36:29   -65
     8 A0:E7:0B:AE:D5:44 AndroidAP177B 2023-07-28 09:13:09 2023-07-28 11:34:42   -37
     9 00:95:69:E7:7C:ED nvripcsuite   2023-07-28 09:13:11 2023-07-28 11:56:13   -55
    10 00:95:69:E7:7F:35 nvripcsuite   2023-07-28 09:13:11 2023-07-28 11:56:07   -69
    # ℹ 1,467 more rows
…
